[
  {
    "name": "After BP Works",
    "imageUrl": "",
    "notes": "",
    "level": ""
  },
  {
    "name": "Color Fading",
    "imageUrl": "",
    "notes": "",
    "level": ""
  },
  {
    "name": "Line Scratches",
    "imageUrl": "",
    "notes": "",
    "level": ""
  },
  {
    "name": "Small Dents",
    "imageUrl": "",
    "notes": "",
    "level": ""
  },
  {
    "name": "Front Spoiler",
    "imageUrl": "",
    "notes": "",
    "damage": "",
    "level": ""
  },
  {
    "name": "Front Bumper",
    "imageUrl": "",
    "notes": "",
    "damage": "",
    "level": ""
  },
  {
    "name": "Grille",
    "imageUrl": "",
    "notes": "",
    "damage": "",
    "level": ""
  },
  {
    "name": "Bonet Hood",
    "imageUrl": "",
    "notes": "",
    "damage": "",
    "level": ""
  },
  {
    "name": "Front Fender Right",
    "imageUrl": "",
    "notes": "",
    "damage": "",
    "level": ""
  },
  {
    "name": "Front Fender left",
    "imageUrl": "",
    "notes": "",
    "damage": "",
    "level": ""
  },
  {
    "name": "Wine Shield",
    "imageUrl": "",
    "notes": "",
    "damage": "",
    "level": ""
  },
  {
    "name": "Front Pillar Right",
    "imageUrl": "",
    "notes": "",
    "damage": "",
    "level": ""
  },
  {
    "name": "Front Pillar Left",
    "imageUrl": "",
    "notes": "",
    "damage": "",
    "level": ""
  },
  {
    "name": "Rocker Panel Right",
    "imageUrl": "",
    "notes": "",
    "damage": "",
    "level": ""
  },
  {
    "name": "Rocker Panel Left",
    "imageUrl": "",
    "notes": "",
    "damage": "",
    "level": ""
  },
  {
    "name": "Front Door Right",
    "imageUrl": "",
    "notes": "",
    "damage": "",
    "level": ""
  },
  {
    "name": "Front Door Left",
    "imageUrl": "",
    "notes": "",
    "damage": "",
    "level": ""
  },
  {
    "name": "Front Window Right",
    "imageUrl": "",
    "notes": "",
    "damage": "",
    "level": ""
  },
  {
    "name": "Front Window Left",
    "imageUrl": "",
    "notes": "",
    "damage": "",
    "level": ""
  },
  {
    "name": "Rear Door Right",
    "imageUrl": "",
    "notes": "",
    "damage": "",
    "level": ""
  },
  {
    "name": "Rear Door Left",
    "imageUrl": "",
    "notes": "",
    "damage": "",
    "level": ""
  },
  {
    "name": "Center Pillar Right",
    "imageUrl": "",
    "notes": "",
    "damage": "",
    "level": ""
  },
  {
    "name": "Center Pillar Left",
    "imageUrl": "",
    "notes": "",
    "damage": "",
    "level": ""
  },
  {
    "name": "Roof Panel",
    "imageUrl": "",
    "notes": "",
    "damage": "",
    "level": ""
  },
  {
    "name": "Rear Window Right",
    "imageUrl": "",
    "notes": "",
    "damage": "",
    "level": ""
  },
  {
    "name": "Rear Window Left",
    "imageUrl": "",
    "notes": "",
    "damage": "",
    "level": ""
  },
  {
    "name": "Rear Pillar Right",
    "imageUrl": "",
    "notes": "",
    "damage": "",
    "level": ""
  },
  {
    "name": "Rear Pillar Left",
    "imageUrl": "",
    "notes": "",
    "damage": "",
    "level": ""
  },
  {
    "name": "Rear Wind Hield",
    "imageUrl": "",
    "notes": "",
    "damage": "",
    "level": ""
  },
  {
    "name": "Rear Fender Right",
    "imageUrl": "",
    "notes": "",
    "damage": "",
    "level": ""
  },
  {
    "name": "Rear Fender Left",
    "imageUrl": "",
    "notes": "",
    "damage": "",
    "level": ""
  },
  {
    "name": "Trunk Hood",
    "imageUrl": "",
    "notes": "",
    "damage": "",
    "level": ""
  },
  {
    "name": "End Panel",
    "imageUrl": "",
    "notes": "",
    "damage": "",
    "level": ""
  },
  {
    "name": "Rear Bumper",
    "imageUrl": "",
    "notes": "",
    "damage": "",
    "level": ""
  },
  {
    "name": "Rear Spoiler",
    "imageUrl": "",
    "notes": "",
    "damage": "",
    "level": ""
  },
  {
    "name": "Wheel Front Right",
    "imageUrl": "",
    "notes": "",
    "damage": "",
    "level": ""
  },
  {
    "name": "Wheel Front Left",
    "imageUrl": "",
    "notes": "",
    "damage": "",
    "level": ""
  },
  {
    "name": "Wheel Back Right",
    "imageUrl": "",
    "notes": "",
    "damage": "",
    "level": ""
  },
  {
    "name": "Wheel Back Left",
    "imageUrl": "",
    "notes": "",
    "damage": "",
    "level": ""
  },
  {
    "name": "Wheel Spare",
    "imageUrl": "",
    "notes": "",
    "damage": "",
    "level": ""
  },
  {
    "name": "Tyre Front Right",
    "imageUrl": "",
    "notes": "",
    "damage": "",
    "level": ""
  },
  {
    "name": "Tyre Front Left",
    "imageUrl": "",
    "notes": "",
    "damage": "",
    "level": ""
  },
  {
    "name": "Tyre Back Right",
    "imageUrl": "",
    "notes": "",
    "damage": "",
    "level": ""
  },
  {
    "name": "Tyre Back Left",
    "imageUrl": "",
    "notes": "",
    "damage": "",
    "level": ""
  },
  {
    "name": "Tyre Spare",
    "imageUrl": "",
    "notes": "",
    "damage": "",
    "level": ""
  },
  {
    "name": "Corner Panel Right",
    "imageUrl": "",
    "notes": "",
    "damage": "",
    "level": ""
  },
  {
    "name": "Corner Panel Left",
    "imageUrl": "",
    "notes": "",
    "damage": "",
    "level": ""
  },
  {
    "name": "Back Panel Right",
    "imageUrl": "",
    "notes": "",
    "damage": "",
    "level": ""
  },
  {
    "name": "Back Panel Left",
    "imageUrl": "",
    "notes": "",
    "damage": "",
    "level": ""
  },
  {
    "name": "Fog Lamp Right",
    "imageUrl": "",
    "notes": "",
    "damage": "",
    "level": ""
  },
  {
    "name": "Fog Lamp Left",
    "imageUrl": "",
    "notes": "",
    "damage": "",
    "level": ""
  },
  {
    "name": "Mud Flap Right",
    "imageUrl": "",
    "notes": "",
    "damage": "",
    "level": ""
  },
  {
    "name": "Mud Flap Left",
    "imageUrl": "",
    "notes": "",
    "damage": "",
    "level": ""
  },
  {
    "name": "Head Lights Right",
    "imageUrl": "",
    "notes": "",
    "damage": "",
    "level": ""
  },
  {
    "name": "Head Lights Left",
    "imageUrl": "",
    "notes": "",
    "damage": "",
    "level": ""
  },
  {
    "name": "Tail Lights Right",
    "imageUrl": "",
    "notes": "",
    "damage": "",
    "level": ""
  },
  {
    "name": "Tail Lights Left",
    "imageUrl": "",
    "notes": "",
    "damage": "",
    "level": ""
  },
  {
    "name": "Side Mirror Right",
    "imageUrl": "",
    "notes": "",
    "damage": "",
    "level": ""
  },
  {
    "name": "Side Mirror Left",
    "imageUrl": "",
    "notes": "",
    "damage": "",
    "level": ""
  },
  {
    "name": "Side Spoiler Right",
    "imageUrl": "",
    "notes": "",
    "damage": "",
    "level": ""
  },
  {
    "name": "Side Spoiler Left",
    "imageUrl": "",
    "notes": "",
    "damage": "",
    "level": ""
  }
]
